do.utf8
…
Summarizing DO data

Dissolved oxygen data typically show daily and seasonal variation. Summaries of condition should account for variation at both temporal scales. Further, the impact of low dissolved oxygen concentrations on biota can vary depending on both magnitude and duration of hypoxia/anoxia. As such, condition assessment could also consider how often concentrations fall below a thresholds and for how long. The assessments below speak to each of these needs.

First, the data can be summarized from the continuous (~6 minute observations) to daily averages using the anlz_dodlpep() function. A user-specified threshold can be supplied to the thr argument to summarize the data relative to a value of interest, the default value being the acute threshold of 3 mg/L (an alternative may be the chronic threshold of 4.8 mg/L, USEPA 2000).

# 3 mg/l is acute, 4.8 mg/l is chronic
dlysum <- anlz_dodlypep(dodat, thr = 3)
dlysum

## # A tibble: 5,338 x 7
##    site          Date          yr    mo do_mgl below below_cumsum
##    <fct>         <date>     <dbl> <dbl>  <dbl> <dbl>        <dbl>
##  1 Peconic River 2013-01-01  2013     1   11.0     0            0
##  2 Peconic River 2013-01-02  2013     1   11.3     0            0
##  3 Peconic River 2013-01-03  2013     1   11.6     0            0
##  4 Peconic River 2013-01-04  2013     1   11.6     0            0
##  5 Peconic River 2013-01-05  2013     1   11.7     0            0
##  6 Peconic River 2013-01-06  2013     1   11.8     0            0
##  7 Peconic River 2013-01-07  2013     1   12.0     0            0
##  8 Peconic River 2013-01-08  2013     1   12.1     0            0
##  9 Peconic River 2013-01-09  2013     1   12.0     0            0
## 10 Peconic River 2013-01-10  2013     1   11.7     0            0
## # ... with 5,328 more rows

The last three columns show the daily summarized data. The do_mgl column shows the average DO concentration for each day, the below column shows a 1 (yes) or 0 (no) if the concentration was below the threshold value at any point during a day, and the below_cumsum column shows a cumulative tally of the number of days in each month at which dissolved oxygen fell below the threshold at any point during a day.

The data can also be summarized by month using the anlz_domopep() function. Summarizing by month distills the information into a simple format for plotting. Internally, the anlz_domopep() function uses the anlz_dodlypep() function to first summarize results by day, which are then summarized by month.

mosum <- anlz_domopep(dodat, thr = 3)
mosum

## # A tibble: 189 x 6
##    site             yr mo    do_mgl below_ave below_maxrun
##  * <fct>         <dbl> <ord>  <dbl>     <dbl>        <dbl>
##  1 Peconic River  2013 Jan    11.6      0                0
##  2 Peconic River  2013 Feb    11.9      0                0
##  3 Peconic River  2013 Mar    11.7      0                0
##  4 Peconic River  2013 Apr     9.55     0                0
##  5 Peconic River  2013 May     7.90     0                0
##  6 Peconic River  2013 Jun     5.73     0.3              5
##  7 Peconic River  2013 Jul     3.12     1               27
##  8 Peconic River  2013 Aug     3.13     1               24
##  9 Peconic River  2013 Sep     4.81     0.655            6
## 10 Peconic River  2013 Oct     6.03     0.348            7
## # ... with 179 more rows
…
